Thesis/Thesis.sim/sim_1/behav/xsim/simulate.log
Time resolution is 1 ps
 Block Memory Generator module loading initial data...
 Block Memory Generator data initialization complete.
Block Memory Generator module tb_ult.input_mem.bram.inst.\native_mem_module.blk_mem_gen_v8_4_7_inst  is using a behavioral model for simulation which will not precisely model memory collision behavior.
0 658 658
0 987 987
0 1316 1316
0 0 0
0 329 329
0 1880 1880
0 1598 1598
0 2162 2162
1 658 659
1 987 988
1 1316 1317
1 0 1
1 329 330
1 1598 1599
2 987 989
1 1880 1881
1 2162 2163
2 658 660
2 1316 1318
2 0 2
2 329 331
3 658 661
3 987 990
2 1598 1600
2 1880 1882
2 2162 2164
3 1316 1319
3 0 3
3 329 332
3 1598 1601
3 1880 1883
4 987 991
3 2162 2165
4 0 4
4 1316 1320
4 329 333
4 658 662
5 987 992
4 1598 1602
4 1880 1884
5 0 5
5 1316 1321
5 658 663
4 2162 2166
5 329 334
5 1598 1603
5 1880 1885
6 987 993
6 0 6
6 658 664
6 1316 1322
5 2162 2167
6 1598 1604
6 1880 1886
6 329 335
7 658 665
7 987 994
7 1316 1323
6 2162 2168
7 0 7
7 1598 1605
7 1880 1887
7 329 336
8 658 666
8 1316 1324
7 2162 2169
8 987 995
8 0 8
8 1598 1606
8 329 337
9 658 667
8 1880 1888
8 2162 2170
9 1316 1325
9 987 996
9 0 9
9 1598 1607
9 329 338
10 658 668
9 1880 1889
9 2162 2171
10 1316 1326
10 987 997
10 1598 1608
10 0 10
10 1880 1890
10 329 339
11 658 669
11 1316 1327
11 987 998
11 1598 1609
10 2162 2172
11 0 11
11 1880 1891
12 658 670
11 329 340
12 987 999
12 1316 1328
12 0 12
11 2162 2173
12 1598 1610
12 1880 1892
12 329 341
13 658 671
13 987 1000
13 1316 1329
13 0 13
13 1598 1611
13 1880 1893
12 2162 2174
14 658 672
14 1316 1330
14 987 1001
14 1598 1612
14 1880 1894
14 0 14
13 329 342
15 658 673
13 2162 2175
15 1316 1331
15 1880 1895
15 987 1002
15 1598 1613
15 0 15
14 329 343
16 658 674
14 2162 2176
16 1880 1896
16 1316 1332
16 987 1003
16 1598 1614
16 0 16
15 329 344
15 2162 2177
17 658 675
17 1880 1897
17 1316 1333
17 987 1004
17 0 17
17 1598 1615
16 2162 2178
16 329 345
18 1880 1898
18 658 676
18 1316 1334
18 987 1005
18 1598 1616
18 0 18
17 2162 2179
17 329 346
19 1880 1899
19 1316 1335
19 658 677
19 987 1006
19 0 19
18 2162 2180
19 1598 1617
18 329 347
20 1880 1900
20 1316 1336
20 987 1007
20 658 678
19 329 348
20 1598 1618
21 1880 1901
19 2162 2181
21 987 1008
20 0 20
21 1316 1337
21 658 679
21 1598 1619
21 0 21
20 2162 2182
20 329 349
22 987 1009
22 1316 1338
22 1880 1902
22 658 680
22 1598 1620
21 2162 2183
21 329 350
23 1880 1903
23 987 1010
23 1316 1339
22 0 22
23 1598 1621
23 658 681
24 1880 1904
22 2162 2184
24 1316 1340
23 0 23
24 987 1011
22 329 351
24 658 682
24 1598 1622
25 1880 1905
23 2162 2185
23 329 352
25 1316 1341
25 987 1012
24 0 24
25 658 683
25 1598 1623
26 1880 1906
24 2162 2186
26 987 1013
26 1316 1342
24 329 353
25 0 25
26 658 684
26 1598 1624
27 1880 1907
25 2162 2187
27 987 1014
27 1316 1343
25 329 354
26 0 26
27 658 685
28 1880 1908
27 1598 1625
28 987 1015
26 2162 2188
27 0 27
26 329 355
28 1316 1344
28 1598 1626
29 1880 1909
28 658 686
27 2162 2189
29 987 1016
29 1316 1345
27 329 356
28 0 28
29 1598 1627
29 658 687
30 1880 1910
28 2162 2190
30 987 1017
30 1316 1346
28 329 357
30 1598 1628
29 0 29
30 658 688
31 987 1018
31 1880 1911
29 2162 2191
31 1316 1347
29 329 358
31 1598 1629
31 658 689
30 0 30
32 1880 1912
30 2162 2192
32 987 1019
32 658 690
32 1316 1348
32 1598 1630
31 0 31
30 329 359
33 1880 1913
33 987 1020
33 1316 1349
33 1598 1631
33 658 691
31 2162 2193
31 329 360
34 1880 1914
32 0 32
34 987 1021
34 658 692
34 1316 1350
34 1598 1632
32 2162 2194
35 1880 1915
33 0 33
32 329 361
35 987 1022
35 1316 1351
35 1598 1633
33 2162 2195
35 658 693
33 329 362
36 1880 1916
34 0 34
36 987 1023
36 658 694
36 1316 1352
34 2162 2196
36 1598 1634
34 329 363
37 1880 1917
35 0 35
37 987 1024
37 658 695
37 1316 1353
37 1598 1635
35 329 364
38 1880 1918
35 2162 2197
38 987 1025
36 0 36
38 658 696
38 1316 1354
38 1598 1636
36 2162 2198
39 1880 1919
39 987 1026
36 329 365
39 658 697
37 0 37
39 1316 1355
39 1598 1637
37 2162 2199
40 1880 1920
40 987 1027
37 329 366
38 0 38
40 658 698
40 1316 1356
41 1880 1921
38 2162 2200
40 1598 1638
39 0 39
41 987 1028
41 658 699
41 1316 1357
41 1598 1639
39 2162 2201
38 329 367
42 1880 1922
42 987 1029
42 658 700
42 1316 1358
39 329 368
40 0 40
42 1598 1640
43 1880 1923
40 2162 2202
43 987 1030
43 658 701
43 1316 1359
41 0 41
43 1598 1641
41 2162 2203
40 329 369
44 987 1031
44 1880 1924
44 658 702
44 1316 1360
42 0 42
42 2162 2204
41 329 370
44 1598 1642
45 987 1032
45 1880 1925
45 658 703
45 1316 1361
45 1598 1643
46 987 1033
46 1880 1926
43 0 43
43 2162 2205
42 329 371
46 658 704
46 1316 1362
44 0 44
44 2162 2206
46 1598 1644
47 987 1034
47 1880 1927
47 658 705
47 1316 1363
43 329 372
45 2162 2207
45 0 45
48 987 1035
47 1598 1645
48 1880 1928
44 329 373
48 658 706
48 1316 1364
46 2162 2208
46 0 46
49 987 1036
49 1880 1929
48 1598 1646
49 658 707
49 1316 1365
45 329 374
47 2162 2209
49 1598 1647
50 987 1037
47 0 47
50 1880 1930
50 658 708
50 1316 1366
46 329 375
50 1598 1648
48 2162 2210
51 987 1038
51 1880 1931
51 658 709
48 0 48
51 1316 1367
51 1598 1649
52 987 1039
47 329 376
49 2162 2211
52 658 710
52 1880 1932
49 0 49
52 1316 1368
52 1598 1650
50 2162 2212
53 658 711
53 987 1040
53 1880 1933
48 329 377
50 0 50
53 1316 1369
53 1598 1651
54 658 712
54 1880 1934
54 987 1041
51 2162 2213
54 1316 1370
49 329 378
51 0 51
54 1598 1652
55 1880 1935
55 658 713
55 987 1042
52 2162 2214
52 0 52
55 1316 1371
55 1598 1653
50 329 379
56 658 714
56 1880 1936
53 2162 2215
53 0 53
56 987 1043
56 1598 1654
56 1316 1372
51 329 380
54 2162 2216
57 658 715
57 1880 1937
57 987 1044
54 0 54
52 329 381
57 1598 1655
57 1316 1373
55 2162 2217
58 1880 1938
58 658 716
58 987 1045
55 0 55
58 1598 1656
58 1316 1374
53 329 382
59 658 717
59 1880 1939
56 2162 2218
59 987 1046
59 1598 1657
56 0 56
60 1880 1940
60 658 718
59 1316 1375
57 2162 2219
54 329 383
60 1598 1658
60 987 1047
61 1880 1941
60 1316 1376
57 0 57
61 658 719
58 2162 2220
55 329 384
61 1598 1659
62 1880 1942
61 987 1048
61 1316 1377
62 658 720
58 0 58
59 2162 2221
56 329 385
62 1598 1660
63 1880 1943
62 987 1049
59 0 59
63 658 721
60 2162 2222
62 1316 1378
63 1598 1661
64 1880 1944
57 329 386
63 987 1050
60 0 60
64 658 722
64 1598 1662
61 2162 2223
63 1316 1379
65 1880 1945
64 987 1051
65 658 723
61 0 61
58 329 387
65 1598 1663
64 1316 1380
66 1880 1946
62 2162 2224
65 987 1052
66 658 724
62 0 62
65 1316 1381
66 1598 1664
59 329 388
67 1880 1947
66 987 1053
63 2162 2225
67 658 725
63 0 63
67 1598 1665
66 1316 1382
60 329 389
68 658 726
67 987 1054
68 1880 1948
68 1598 1666
64 0 64
64 2162 2226
69 1880 1949
68 987 1055
69 658 727
67 1316 1383
61 329 390
65 2162 2227
69 1598 1667
69 987 1056
70 1880 1950
65 0 65
70 658 728
68 1316 1384
70 1598 1668
62 329 391
71 1880 1951
70 987 1057
66 2162 2228
71 658 729
66 0 66
71 1598 1669
69 1316 1385
72 1880 1952
63 329 392
71 987 1058
67 2162 2229
72 658 730
72 1598 1670
70 1316 1386
73 1880 1953
64 329 393
72 987 1059
67 0 67
68 2162 2230
73 658 731
71 1316 1387
73 1598 1671
68 0 68
73 987 1060
74 1880 1954
65 329 394
69 2162 2231
74 658 732
74 1598 1672
69 0 69
72 1316 1388
74 987 1061
75 1880 1955
66 329 395
70 2162 2232
75 658 733
75 1598 1673
73 1316 1389
75 987 1062
76 1880 1956
70 0 70
71 2162 2233
76 658 734
67 329 396
74 1316 1390
76 1598 1674
76 987 1063
77 1880 1957
71 0 71
77 1598 1675
72 2162 2234
75 1316 1391
68 329 397
77 658 735
77 987 1064
78 1880 1958
72 0 72
78 1598 1676
76 1316 1392
78 658 736
73 2162 2235
78 987 1065
79 1880 1959
79 1598 1677
69 329 398
79 658 737
77 1316 1393
73 0 73
74 2162 2236
80 1880 1960
79 987 1066
70 329 399
75 2162 2237
74 0 74
80 658 738
80 1598 1678
78 1316 1394
80 987 1067
81 1880 1961
75 0 75
71 329 400
81 1598 1679
81 658 739
79 1316 1395
76 2162 2238
82 1880 1962
81 987 1068
80 1316 1396
82 1598 1680
82 658 740
76 0 76
77 2162 2239
83 1880 1963
82 987 1069
83 1598 1681
81 1316 1397
72 329 401
78 2162 2240
83 658 741
77 0 77
84 1598 1682
83 987 1070
84 1880 1964
84 658 742
82 1316 1398
79 2162 2241
78 0 78
73 329 402
84 987 1071
85 1880 1965
85 1598 1683
85 658 743
83 1316 1399
80 2162 2242
86 1880 1966
85 987 1072
86 1598 1684
84 1316 1400
86 658 744
79 0 79
74 329 403
86 987 1073
81 2162 2243
87 1880 1967
87 1598 1685
87 658 745
85 1316 1401
87 987 1074
80 0 80
82 2162 2244
75 329 404
88 1880 1968
88 658 746
88 1598 1686
86 1316 1402
88 987 1075
81 0 81
89 658 747
89 1598 1687
89 1880 1969
76 329 405
83 2162 2245
89 987 1076
90 658 748
87 1316 1403
90 1598 1688
90 1880 1970
82 0 82
84 2162 2246
91 658 749
90 987 1077
88 1316 1404
91 1598 1689
91 1880 1971
77 329 406
83 0 83
91 987 1078
92 658 750
92 1598 1690
92 1880 1972
85 2162 2247
89 1316 1405
92 987 1079
93 658 751
86 2162 2248
84 0 84
78 329 407
93 1880 1973
90 1316 1406
93 1598 1691
93 987 1080
94 658 752
85 0 85
87 2162 2249
94 1598 1692
94 1880 1974
88 2162 2250
94 987 1081
95 658 753
91 1316 1407
86 0 86
79 329 408
95 1598 1693
95 1880 1975
95 987 1082
89 2162 2251
96 658 754
96 1598 1694
87 0 87
80 329 409
92 1316 1408
96 1880 1976
96 987 1083
97 1598 1695
97 1880 1977
90 2162 2252
97 658 755
88 0 88
81 329 410
93 1316 1409
91 2162 2253
97 987 1084
98 658 756
94 1316 1410
98 1598 1696
98 1880 1978
89 0 89
98 987 1085
92 2162 2254
82 329 411
99 658 757
99 1598 1697
99 1880 1979
95 1316 1411
99 987 1086
100 658 758
100 1598 1698
100 1880 1980
90 0 90
93 2162 2255
83 329 412
96 1316 1412
101 1598 1699
101 1880 1981
91 0 91
97 1316 1413
101 658 759
100 987 1087
94 2162 2256
102 1598 1700
102 1880 1982
92 0 92
84 329 413
101 987 1088
102 658 760
95 2162 2257
98 1316 1414
103 1598 1701
103 1880 1983
102 987 1089
103 658 761
85 329 414
93 0 93
96 2162 2258
104 1598 1702
104 1880 1984
99 1316 1415
103 987 1090
94 0 94
105 1598 1703
105 1880 1985
104 658 762
86 329 415
104 987 1091
100 1316 1416
97 2162 2259
105 658 763
106 1598 1704
106 1880 1986
95 0 95
105 987 1092
107 1880 1987
106 658 764
98 2162 2260
87 329 416
101 1316 1417
107 1598 1705
108 1880 1988
106 987 1093
99 2162 2261
96 0 96
102 1316 1418
108 1598 1706
107 658 765
109 1880 1989
88 329 417
107 987 1094
109 1598 1707
108 658 766
100 2162 2262
97 0 97
103 1316 1419
110 1880 1990
108 987 1095
110 1598 1708
89 329 418
101 2162 2263
109 658 767
104 1316 1420
111 1880 1991
98 0 98
109 987 1096
111 1598 1709
102 2162 2264
110 658 768
105 1316 1421
112 1880 1992
99 0 99
110 987 1097
90 329 419
103 2162 2265
112 1598 1710
111 658 769
106 1316 1422
113 1880 1993
100 0 100
111 987 1098
113 1598 1711
91 329 420
104 2162 2266
112 658 770
107 1316 1423
114 1880 1994
112 987 1099
101 0 101
114 1598 1712
105 2162 2267
113 658 771
115 1880 1995
92 329 421
113 987 1100
108 1316 1424
102 0 102
106 2162 2268
114 658 772
115 1598 1713
114 987 1101
109 1316 1425
116 1880 1996
103 0 103
107 2162 2269
116 1598 1714
115 658 773
93 329 422
115 987 1102
117 1880 1997
110 1316 1426
108 2162 2270
104 0 104
116 658 774
117 1598 1715
116 987 1103
118 1880 1998
94 329 423
111 1316 1427
109 2162 2271
117 658 775
118 1598 1716
119 1880 1999
105 0 105
117 987 1104
112 1316 1428
95 329 424
119 1598 1717
118 658 776
110 2162 2272
118 987 1105
120 1880 2000
113 1316 1429
106 0 106
120 1598 1718
119 658 777
96 329 425
119 987 1106
121 1880 2001
107 0 107
114 1316 1430
111 2162 2273
120 658 778
121 1598 1719
122 1880 2002
112 2162 2274
97 329 426
120 987 1107
115 1316 1431
121 658 779
122 1598 1720
108 0 108
121 987 1108
113 2162 2275
123 1880 2003
122 658 780
123 1598 1721
98 329 427
116 1316 1432
109 0 109
122 987 1109
123 658 781
124 1880 2004
114 2162 2276
124 1598 1722
99 329 428
117 1316 1433
110 0 110
123 987 1110
125 1880 2005
124 658 782
125 1598 1723
118 1316 1434
126 1880 2006
111 0 111
115 2162 2277
124 987 1111
125 658 783
100 329 429
126 1598 1724
119 1316 1435
116 2162 2278
125 987 1112
127 1880 2007
126 658 784
112 0 112
101 329 430
127 1598 1725
117 2162 2279
120 1316 1436
126 987 1113
113 0 113
128 1880 2008
127 658 785
102 329 431
128 1598 1726
121 1316 1437
127 987 1114
118 2162 2280
129 1880 2009
128 658 786
114 0 114
122 1316 1438
129 1598 1727
128 987 1115
103 329 432
119 2162 2281
130 1880 2010
129 658 787
115 0 115
130 1598 1728
123 1316 1439
129 987 1116
131 1880 2011
120 2162 2282
130 658 788
104 329 433
116 0 116
130 987 1117
124 1316 1440
131 1598 1729
132 1880 2012
131 658 789
121 2162 2283
117 0 117
125 1316 1441
132 1598 1730
131 987 1118
133 1880 2013
105 329 434
122 2162 2284
132 658 790
133 1598 1731
118 0 118
126 1316 1442
132 987 1119
134 1880 2014
133 658 791
106 329 435
123 2162 2285
127 1316 1443
134 1598 1732
133 987 1120
135 1880 2015
134 658 792
119 0 119
107 329 436
135 1598 1733
128 1316 1444
124 2162 2286
120 0 120
134 987 1121
136 1880 2016
135 658 793
136 1598 1734
108 329 437
129 1316 1445
125 2162 2287
136 658 794
135 987 1122
137 1880 2017
121 0 121
137 1598 1735
130 1316 1446
126 2162 2288
137 658 795
136 987 1123
138 658 796
137 987 1124
131 1316 1447
138 1598 1736
138 1880 2018
127 2162 2289
109 329 438
122 0 122
139 1598 1737
139 1880 2019
132 1316 1448
128 2162 2290
139 658 797
110 329 439
138 987 1125
140 1598 1738
140 1880 2020
123 0 123
129 2162 2291
140 658 798
133 1316 1449
111 329 440
141 1880 2021
141 1598 1739
139 987 1126
124 0 124
134 1316 1450
141 658 799
130 2162 2292
142 1598 1740
142 1880 2022
112 329 441
140 987 1127
142 658 800
135 1316 1451
125 0 125
143 1598 1741
143 1880 2023
131 2162 2293
143 658 801
141 987 1128
113 329 442
144 658 802
136 1316 1452
126 0 126
144 1598 1742
144 1880 2024
142 987 1129
114 329 443
132 2162 2294
145 1598 1743
145 1880 2025
127 0 127
137 1316 1453
145 658 803
133 2162 2295
143 987 1130
146 1598 1744
146 1880 2026
115 329 444
128 0 128
138 1316 1454
146 658 804
144 987 1131
147 1598 1745
147 1880 2027
134 2162 2296
116 329 445
129 0 129
145 987 1132
147 658 805
139 1316 1455
148 1598 1746
148 1880 2028
135 2162 2297
146 987 1133
148 658 806
140 1316 1456
130 0 130
149 1598 1747
149 1880 2029
117 329 446
149 658 807
147 987 1134
136 2162 2298
150 1598 1748
150 1880 2030
141 1316 1457
131 0 131
137 2162 2299
118 329 447
148 987 1135
150 658 808
151 1598 1749
151 1880 2031
142 1316 1458
132 0 132
149 987 1136
151 658 809
138 2162 2300
152 1598 1750
152 1880 2032
119 329 448
133 0 133
150 987 1137
153 1880 2033
153 1598 1751
120 329 449
152 658 810
143 1316 1459
139 2162 2301
154 1598 1752
154 1880 2034
151 987 1138
121 329 450
144 1316 1460
153 658 811
134 0 134
155 1598 1753
155 1880 2035
140 2162 2302
152 987 1139
154 658 812
135 0 135
156 1598 1754
156 1880 2036
145 1316 1461
122 329 451
153 987 1140
155 658 813
141 2162 2303
146 1316 1462
157 1598 1755
157 1880 2037
136 0 136
156 658 814
123 329 452
154 987 1141
147 1316 1463
142 2162 2304
158 1598 1756
158 1880 2038
157 658 815
155 987 1142
143 2162 2305
137 0 137
124 329 453
159 1598 1757
159 1880 2039
148 1316 1464
156 987 1143
144 2162 2306
158 658 816
149 1316 1465
160 1598 1758
160 1880 2040
138 0 138
125 329 454
157 987 1144
145 2162 2307
161 1598 1759
161 1880 2041
159 658 817
150 1316 1466
139 0 139
126 329 455
158 987 1145
162 1598 1760
162 1880 2042
160 658 818
146 2162 2308
140 0 140
163 1598 1761
163 1880 2043
159 987 1146
161 658 819
151 1316 1467
164 1598 1762
164 1880 2044
127 329 456
147 2162 2309
160 987 1147
141 0 141
162 658 820
128 329 457
152 1316 1468
165 1598 1763
165 1880 2045
148 2162 2310
142 0 142
161 987 1148
163 658 821
166 1598 1764
166 1880 2046
129 329 458
153 1316 1469
164 658 822
143 0 143
149 2162 2311
162 987 1149
167 1598 1765
167 1880 2047
130 329 459
154 1316 1470
165 658 823
144 0 144
163 987 1150
150 2162 2312
168 1598 1766
155 1316 1471
168 1880 2048
131 329 460
166 658 824
164 987 1151
145 0 145
169 1598 1767
169 1880 2049
151 2162 2313
156 1316 1472
132 329 461
146 0 146
167 658 825
165 987 1152
152 2162 2314
170 1598 1768
133 329 462
170 1880 2050
157 1316 1473
168 658 826
171 1598 1769
166 987 1153
153 2162 2315
147 0 147
171 1880 2051
134 329 463
158 1316 1474
172 1598 1770
167 987 1154
169 658 827
154 2162 2316
172 1880 2052
159 1316 1475
148 0 148
135 329 464
170 658 828
173 1598 1771
155 2162 2317
173 1880 2053
149 0 149
168 987 1155
160 1316 1476
136 329 465
174 1598 1772
171 658 829
156 2162 2318
174 1880 2054
150 0 150
169 987 1156
161 1316 1477
137 329 466
175 1598 1773
157 2162 2319
172 658 830
170 987 1157
175 1880 2055
151 0 151
162 1316 1478
158 2162 2320
176 1598 1774
138 329 467
176 1880 2056
173 658 831
171 987 1158
177 1598 1775
163 1316 1479
152 0 152
139 329 468
174 658 832
177 1880 2057
159 2162 2321
172 987 1159
164 1316 1480
178 1598 1776
175 658 833
178 1880 2058
153 0 153
140 329 469
160 2162 2322
173 987 1160
179 1598 1777
165 1316 1481
176 658 834
179 1880 2059
161 2162 2323
154 0 154
141 329 470
174 987 1161
180 1598 1778
177 658 835
180 1880 2060
166 1316 1482
155 0 155
142 329 471
162 2162 2324
175 987 1162
181 1598 1779
178 658 836
181 1880 2061
167 1316 1483
143 329 472
176 987 1163
182 1598 1780
156 0 156
182 1880 2062
179 658 837
163 2162 2325
168 1316 1484
157 0 157
177 987 1164
144 329 473
183 1598 1781
164 2162 2326
183 1880 2063
180 658 838
169 1316 1485
178 987 1165
158 0 158
184 1598 1782
165 2162 2327
184 1880 2064
145 329 474
181 658 839
170 1316 1486
185 1598 1783
185 1880 2065
179 987 1166
159 0 159
171 1316 1487
182 658 840
166 2162 2328
180 987 1167
186 1598 1784
186 1880 2066
146 329 475
160 0 160
183 658 841
172 1316 1488
167 2162 2329
187 1880 2067
187 1598 1785
181 987 1168
147 329 476
184 658 842
188 1598 1786
188 1880 2068
168 2162 2330
173 1316 1489
182 987 1169
161 0 161
148 329 477
189 1598 1787
189 1880 2069
185 658 843
174 1316 1490
183 987 1170
169 2162 2331
190 1598 1788
190 1880 2070
149 329 478
186 658 844
175 1316 1491
162 0 162
184 987 1171
191 1880 2071
191 1598 1789
150 329 479
170 2162 2332
192 1880 2072
187 658 845
185 987 1172
163 0 163
151 329 480
192 1598 1790
176 1316 1492
186 987 1173
188 658 846
193 1880 2073
171 2162 2333
164 0 164
193 1598 1791
152 329 481
177 1316 1493
189 658 847
172 2162 2334
187 987 1174
194 1880 2074
165 0 165
194 1598 1792
178 1316 1494
153 329 482
190 658 848
195 1880 2075
188 987 1175
195 1598 1793
173 2162 2335
166 0 166
154 329 483
179 1316 1495
191 658 849
189 987 1176
196 1598 1794
196 1880 2076
174 2162 2336
155 329 484
167 0 167
192 658 850
190 987 1177
197 1598 1795
197 1880 2077
180 1316 1496
156 329 485
191 987 1178
193 658 851
175 2162 2337
168 0 168
198 1880 2078
198 1598 1796
181 1316 1497
194 658 852
192 987 1179
199 1880 2079
157 329 486
199 1598 1797
195 658 853
169 0 169
176 2162 2338
182 1316 1498
193 987 1180
200 1598 1798
200 1880 2080
177 2162 2339
196 658 854
158 329 487
170 0 170
194 987 1181
201 1880 2081
183 1316 1499
201 1598 1799
178 2162 2340
171 0 171
159 329 488
197 658 855
195 987 1182
202 1880 2082
184 1316 1500
202 1598 1800
198 658 856
179 2162 2341
172 0 172
160 329 489
203 1880 2083
196 987 1183
203 1598 1801
185 1316 1501
180 2162 2342
199 658 857
197 987 1184
204 1880 2084
173 0 173
161 329 490
204 1598 1802
200 658 858
205 1880 2085
186 1316 1502
181 2162 2343
198 987 1185
205 1598 1803
162 329 491
201 658 859
187 1316 1503
206 1880 2086
174 0 174
206 1598 1804
199 987 1186
163 329 492
202 658 860
182 2162 2344
207 1880 2087
207 1598 1805
200 987 1187
175 0 175
164 329 493
188 1316 1504
203 658 861
208 1880 2088
183 2162 2345
176 0 176
201 987 1188
208 1598 1806
184 2162 2346
165 329 494
189 1316 1505
209 1880 2089
204 658 862
177 0 177
202 987 1189
166 329 495
209 1598 1807
185 2162 2347
205 658 863
190 1316 1506
210 1880 2090
167 329 496
178 0 178
203 987 1190
210 1598 1808
211 1880 2091
191 1316 1507
206 658 864
204 987 1191
211 1598 1809
186 2162 2348
179 0 179
168 329 497
207 658 865
212 1880 2092
205 987 1192
212 1598 1810
192 1316 1508
187 2162 2349
213 1880 2093
169 329 498
208 658 866
193 1316 1509
206 987 1193
213 1598 1811
180 0 180
188 2162 2350
214 1880 2094
194 1316 1510
181 0 181
170 329 499
209 658 867
214 1598 1812
189 2162 2351
207 987 1194
215 1880 2095
195 1316 1511
171 329 500
182 0 182
215 1598 1813
210 658 868
190 2162 2352
208 987 1195
216 1880 2096
172 329 501
196 1316 1512
216 1598 1814
183 0 183
211 658 869
191 2162 2353
217 1880 2097
173 329 502
209 987 1196
197 1316 1513
184 0 184
217 1598 1815
212 658 870
192 2162 2354
174 329 503
210 987 1197
218 1880 2098
185 0 185
198 1316 1514
218 1598 1816
213 658 871
219 1880 2099
193 2162 2355
175 329 504
211 987 1198
199 1316 1515
214 658 872
219 1598 1817
186 0 186
212 987 1199
194 2162 2356
176 329 505
220 1880 2100
200 1316 1516
187 0 187
220 1598 1818
215 658 873
221 1880 2101
213 987 1200
195 2162 2357
221 1598 1819
201 1316 1517
177 329 506
216 658 874
188 0 188
214 987 1201
222 1880 2102
196 2162 2358
178 329 507
217 658 875
222 1598 1820
223 1880 2103
202 1316 1518
215 987 1202
179 329 508
189 0 189
197 2162 2359
218 658 876
223 1598 1821
190 0 190
203 1316 1519
224 1880 2104
216 987 1203
198 2162 2360
180 329 509
219 658 877
191 0 191
224 1598 1822
225 1880 2105
217 987 1204
204 1316 1520
181 329 510
199 2162 2361
220 658 878
225 1598 1823
192 0 192
226 1880 2106
182 329 511
218 987 1205
200 2162 2362
205 1316 1521
221 658 879
226 1598 1824
219 987 1206
227 1880 2107
183 329 512
201 2162 2363
193 0 193
206 1316 1522
222 658 880
227 1598 1825
228 1880 2108
194 0 194
220 987 1207
184 329 513
202 2162 2364
228 1598 1826
229 1880 2109
223 658 881
207 1316 1523
185 329 514
195 0 195
221 987 1208
229 1598 1827
230 1880 2110
224 658 882
203 2162 2365
186 329 515
208 1316 1524
196 0 196
222 987 1209
230 1598 1828
231 1880 2111
204 2162 2366
225 658 883
197 0 197
187 329 516
209 1316 1525
223 987 1210
226 658 884
231 1598 1829
232 1880 2112
205 2162 2367
188 329 517
198 0 198
210 1316 1526
232 1598 1830
233 1880 2113
224 987 1211
206 2162 2368
199 0 199
227 658 885
211 1316 1527
189 329 518
225 987 1212
233 1598 1831
234 1880 2114
207 2162 2369
228 658 886
200 0 200
190 329 519
234 1598 1832
226 987 1213
212 1316 1528
235 1880 2115
208 2162 2370
229 658 887
191 329 520
213 1316 1529
235 1598 1833
201 0 201
230 658 888
227 987 1214
236 1880 2116
192 329 521
209 2162 2371
236 1598 1834
228 987 1215
214 1316 1530
202 0 202
237 1880 2117
231 658 889
193 329 522
210 2162 2372
237 1598 1835
229 987 1216
203 0 203
232 658 890
238 1880 2118
215 1316 1531
211 2162 2373
194 329 523
238 1598 1836
230 987 1217
233 658 891
204 0 204
216 1316 1532
239 1880 2119
195 329 524
239 1598 1837
212 2162 2374
234 658 892
231 987 1218
240 1880 2120
217 1316 1533
205 0 205
240 1598 1838
196 329 525
235 658 893
232 987 1219
213 2162 2375
241 1880 2121
206 0 206
241 1598 1839
197 329 526
236 658 894
242 1880 2122
218 1316 1534
242 1598 1840
214 2162 2376
233 987 1220
243 1880 2123
198 329 527
237 658 895
219 1316 1535
207 0 207
243 1598 1841
215 2162 2377
199 329 528
244 1880 2124
234 987 1221
208 0 208
220 1316 1536
238 658 896
244 1598 1842
235 987 1222
200 329 529
245 1880 2125
239 658 897
216 2162 2378
209 0 209
245 1598 1843
221 1316 1537
236 987 1223
201 329 530
246 1880 2126
217 2162 2379
210 0 210
240 658 898
246 1598 1844
222 1316 1538
237 987 1224
247 1880 2127
211 0 211
202 329 531
218 2162 2380
241 658 899
238 987 1225
247 1598 1845
248 1880 2128
203 329 532
223 1316 1539
242 658 900
219 2162 2381
212 0 212
248 1598 1846
249 1880 2129
204 329 533
239 987 1226
243 658 901
224 1316 1540
249 1598 1847
240 987 1227
213 0 213
250 1880 2130
205 329 534
220 2162 2382
244 658 902
250 1598 1848
225 1316 1541
214 0 214
251 1880 2131
221 2162 2383
206 329 535
251 1598 1849
245 658 903
241 987 1228
215 0 215
207 329 536
252 1880 2132
226 1316 1542
222 2162 2384
252 1598 1850
246 658 904
242 987 1229
208 329 537
253 1880 2133
216 0 216
227 1316 1543
253 1598 1851
254 1880 2134
209 329 538
223 2162 2385
247 658 905
243 987 1230
217 0 217
254 1598 1852
228 1316 1544
255 1880 2135
210 329 539
224 2162 2386
248 658 906
244 987 1231
229 1316 1545
218 0 218
255 1598 1853
249 658 907
245 987 1232
211 329 540
256 1880 2136
225 2162 2387
219 0 219
256 1598 1854
230 1316 1546
212 329 541
257 1880 2137
250 658 908
246 987 1233
257 1598 1855
226 2162 2388
231 1316 1547
220 0 220
213 329 542
258 1880 2138
258 1598 1856
251 658 909
247 987 1234
227 2162 2389
259 1880 2139
232 1316 1548
221 0 221
214 329 543
252 658 910
233 1316 1549
260 1880 2140
259 1598 1857
215 329 544
248 987 1235
228 2162 2390
253 658 911
222 0 222
234 1316 1550
260 1598 1858
261 1880 2141
229 2162 2391
216 329 545
249 987 1236
223 0 223
235 1316 1551
261 1598 1859
254 658 912
262 1880 2142
217 329 546
250 987 1237
224 0 224
230 2162 2392
262 1598 1860
263 1880 2143
236 1316 1552
218 329 547
255 658 913
251 987 1238
231 2162 2393
225 0 225
263 1598 1861
264 1880 2144
237 1316 1553
219 329 548
256 658 914
252 987 1239
226 0 226
232 2162 2394
238 1316 1554
265 1880 2145
257 658 915
264 1598 1862
220 329 549
253 987 1240
233 2162 2395
227 0 227
239 1316 1555
266 1880 2146
265 1598 1863
221 329 550
258 658 916
234 2162 2396
254 987 1241
240 1316 1556
228 0 228
259 658 917
266 1598 1864
267 1880 2147
222 329 551
235 2162 2397
267 1598 1865
229 0 229
260 658 918
255 987 1242
268 1880 2148
241 1316 1557
236 2162 2398
223 329 552
268 1598 1866
230 0 230
261 658 919
256 987 1243
242 1316 1558
269 1880 2149
237 2162 2399
224 329 553
262 658 920
257 987 1244
269 1598 1867
270 1880 2150
231 0 231
225 329 554
270 1598 1868
238 2162 2400
263 658 921
258 987 1245
243 1316 1559
271 1880 2151
232 0 232
239 2162 2401
226 329 555
271 1598 1869
264 658 922
259 987 1246
244 1316 1560
227 329 556
272 1880 2152
233 0 233
240 2162 2402
272 1598 1870
265 658 923
260 987 1247
228 329 557
273 1880 2153
245 1316 1561
234 0 234
273 1598 1871
241 2162 2403
266 658 924
229 329 558
274 1880 2154
246 1316 1562
267 658 925
261 987 1248
235 0 235
242 2162 2404
275 1880 2155
230 329 559
274 1598 1872
247 1316 1563
262 987 1249
268 658 926
236 0 236
275 1598 1873
248 1316 1564
276 1880 2156
231 329 560
243 2162 2405
263 987 1250
237 0 237
276 1598 1874
232 329 561
277 1880 2157
244 2162 2406
269 658 927
277 1598 1875
249 1316 1565
278 1880 2158
238 0 238
264 987 1251
233 329 562
270 658 928
278 1598 1876
239 0 239
250 1316 1566
245 2162 2407
279 1880 2159
234 329 563
265 987 1252
251 1316 1567
246 2162 2408
271 658 929
279 1598 1877
240 0 240
235 329 564
280 1880 2160
247 2162 2409
280 1598 1878
